0 info it worked if it ends with ok
1 verbose cli [ '/usr/bin/nodejs', '/usr/bin/npm', 'start' ]
2 info using npm@3.10.10
3 info using node@v6.10.3
4 verbose run-script [ 'prestart', 'start', 'poststart' ]
5 info lifecycle @~prestart: @
6 silly lifecycle @~prestart: no script for prestart, continuing
7 info lifecycle @~start: @
8 verbose lifecycle @~start: unsafe-perm in lifecycle true
9 verbose lifecycle @~start: PATH: /usr/lib/node_modules/npm/bin/node-gyp-bin:/home/vanda/workspace/telegram_bots/botex/assets/node_modules/.bin:/usr/lib/erlang/erts-9.0/bin:/usr/lib/erlang/bin:/usr/local/sbin:/usr/local/bin:/usr/sbin:/usr/bin:/sbin:/bin:/usr/games:/usr/local/games
10 verbose lifecycle @~start: CWD: /home/vanda/workspace/telegram_bots/botex/assets
11 silly lifecycle @~start: Args: [ '-c', 'webpack --watch-stdin --progress --color' ]
12 verbose stack Error: write EPIPE
12 verbose stack     at exports._errnoException (util.js:1018:11)
12 verbose stack     at WriteWrap.afterWrite (net.js:800:14)
13 verbose cwd /home/vanda/workspace/telegram_bots/botex/assets
14 error Linux 3.13.0-119-generic
15 error argv "/usr/bin/nodejs" "/usr/bin/npm" "start"
16 error node v6.10.3
17 error npm  v3.10.10
18 error code EPIPE
19 error errno EPIPE
20 error syscall write
21 error write EPIPE
22 error If you need help, you may report this error at:
22 error     <https://github.com/npm/npm/issues>
23 verbose exit [ 1, true ]
